…
> base::assign(".oldSearch", base::search(), pos = 'CheckExEnv')
> cleanEx()
> nameEx("find_station")
> ### * find_station
> 
> flush(stderr()); flush(stdout())
> 
> ### Name: find_station
> ### Title: Find a Historical Climate Data station
> ### Aliases: find_station
> 
> ### ** Examples
> 
> find_station("Regina")
# A tibble: 30 × 5
                         Name     Province StationID LatitudeDD LongitudeDD
                       <fctr>       <fctr>    <fctr>      <dbl>       <dbl>
1                      REGINA Saskatchewan      7450         NA          NA
2                      REGINA Saskatchewan      7451      50.45     -104.62
3              REGINA INT'L A Saskatchewan      3002      50.43     -104.67
4                      REGINA Saskatchewan     50877      50.43     -104.67
5  REGINA CO-OP UPGRADER SNOW Saskatchewan     46587      50.49     -104.59
6           REGINA SIAST SNOW Saskatchewan     46588      50.41     -104.58
7            REGINA RCMP SNOW Saskatchewan     46607      50.45     -104.67
8               REGINA INTL A Saskatchewan     51441      50.43     -104.67
9             REGINA AP STN A Saskatchewan      7452      50.43     -104.62
10            REGINA AP STN B Saskatchewan      7453      50.42     -104.62
# ... with 20 more rows
…
> cleanEx()
> nameEx("read_hcd")
> ### * read_hcd
> 
> flush(stderr()); flush(stdout())
> 
> ### Name: read_hcd
> ### Title: Read Historical Climate Data files
> ### Aliases: read_hcd
> 
> ### ** Examples
> 
> ## read a monthly data file
> read_hcd(system.file("extdata/2855-monthly-data.csv", package = "canadaHCD"))
# A tibble: 515 × 12
            Date MaxTemp MinTemp MeanTemp ExtremeHigh ExtremeLow TotalRain
   <S3: yearmon>   <dbl>   <dbl>    <dbl>       <dbl>      <dbl>     <dbl>
1       Jan 1965      NA      NA       NA          NA         NA        NA
2       Feb 1965      NA      NA       NA          NA         NA        NA
3       Mar 1965    -8.1   -20.4    -14.3         2.8      -31.7       0.0
4       Apr 1965     7.3    -1.9      2.7        25.6       -6.7      25.7
5       May 1965    16.0     1.9      9.0        25.6       -4.4      77.7
6       Jun 1965    21.7     9.4     15.6        30.6        2.8      92.7
7       Jul 1965    24.7    10.4     17.6        29.4        1.1      32.8
8       Aug 1965    24.6     9.1     16.9        36.1        1.7      60.7
9       Sep 1965    10.4     0.1      5.3        24.4       -8.3     105.4
10      Oct 1965    14.1    -0.6      6.8        21.1       -6.1       0.0
# ... with 505 more rows, and 5 more variables: TotalSnow <dbl>,
#   TotalPrecip <dbl>, LastSnowGrnd <int>, MaxGustDir <int>, MaxGustSpeed <chr>
> 
> ## read a daily data file
> read_hcd(system.file("extdata/2855-daily-data-2015.csv", package = "canadaHCD"))
# A tibble: 365 × 12
         Date MaxTemp MinTemp MeanTemp HeatDegDays CoolDegDays TotalRain
       <date>   <dbl>   <dbl>    <dbl>       <dbl>       <dbl>     <dbl>
1  2015-01-01    -4.9   -12.7     -8.8        26.8           0        NA
2  2015-01-02    -3.9   -19.6    -11.8        29.8           0        NA
3  2015-01-03   -19.5   -29.9    -24.7        42.7           0        NA
4  2015-01-04   -26.9   -34.9    -30.9        48.9           0        NA
5  2015-01-05   -19.3   -31.3    -25.3        43.3           0        NA
6  2015-01-06   -20.7   -25.4    -23.1        41.1           0        NA
7  2015-01-07   -13.0   -29.4    -21.2        39.2           0        NA
8  2015-01-08   -13.2   -21.7    -17.5        35.5           0        NA
9  2015-01-09   -18.9   -24.1    -21.5        39.5           0        NA
10 2015-01-10   -20.9   -27.5    -24.2        42.2           0        NA
# ... with 355 more rows, and 5 more variables: TotalSnow <dbl>,
#   TotalPrecip <dbl>, GroundSnow <int>, MaxGustDir <int>, MaxGustSpeed <chr>
…
