Canadian Historical Climate Data • canadaHCD
…
To download the monthly HCD from YELLOWKNIFE HYDRO you
can use hcd_monthly(), providing it with the
StationID for that particular weather station, either as an
integer or as a character string

yh <- hcd_monthly(1707)

The data are returned as a tibble
(a tbl_df), which shows a compact version of the data
frame.

yh
#> # A tibble: 690 × 16
#>    Station           ClimateID Longitude Latitude Date  MaxTemp MinTemp MeanTemp
#>    <chr>             <chr>         <dbl>    <dbl> <yea>   <dbl>   <dbl>    <dbl>
#>  1 YELLOWKNIFE HYDRO 2204200       -114.     62.7 Jan …    NA      NA       NA  
#>  2 YELLOWKNIFE HYDRO 2204200       -114.     62.7 Feb …   -16.2   -26.4    -21.3
#>  3 YELLOWKNIFE HYDRO 2204200       -114.     62.7 Mar …   -14.4   -29.4    -21.9
#>  4 YELLOWKNIFE HYDRO 2204200       -114.     62.7 Apr …     1.2   -12.3     -5.6
#>  5 YELLOWKNIFE HYDRO 2204200       -114.     62.7 May …     9.3    -3.6      2.9
#>  6 YELLOWKNIFE HYDRO 2204200       -114.     62.7 Jun …    17.6     2.4     10  
#>  7 YELLOWKNIFE HYDRO 2204200       -114.     62.7 Jul …    20.6     9.6     15.1
#>  8 YELLOWKNIFE HYDRO 2204200       -114.     62.7 Aug …    18.9     7.2     13.1
#>  9 YELLOWKNIFE HYDRO 2204200       -114.     62.7 Sep …    10.9     2        6.5
#> 10 YELLOWKNIFE HYDRO 2204200       -114.     62.7 Oct …     6.1    -1.9      2.1
#> # ℹ 680 more rows
#> # ℹ 8 more variables: ExtremeHigh <dbl>, ExtremeLow <dbl>, TotalRain <dbl>,
#> #   TotalSnow <dbl>, TotalPrecip <dbl>, LastSnowGrnd <int>, MaxGustDir <int>,
#> #   MaxGustSpeed <chr>
…
