Find a Historical Climate Data station — find_station • canadaHCD
…
...
Additional arguments passed to grep.

    Value

An object of class "hcd_station_list", which is a "tbl_df", containing details of any matching HCD stations.

    Author

    Gavin L. Simpson

    Examples

find_station("Regina")
#> # A tibble: 30 × 5
#>    Name                       Province     StationID LatitudeDD LongitudeDD
#>    <fct>                      <fct>        <fct>          <dbl>       <dbl>
#>  1 REGINA                     Saskatchewan 7450            NA           NA 
#>  2 REGINA                     Saskatchewan 7451            50.4       -105.
#>  3 REGINA INT'L A             Saskatchewan 3002            50.4       -105.
#>  4 REGINA                     Saskatchewan 50877           50.4       -105.
#>  5 REGINA CO-OP UPGRADER SNOW Saskatchewan 46587           50.5       -105.
#>  6 REGINA SIAST SNOW          Saskatchewan 46588           50.4       -105.
#>  7 REGINA RCMP SNOW           Saskatchewan 46607           50.4       -105.
#>  8 REGINA INTL A              Saskatchewan 51441           50.4       -105.
#>  9 REGINA AP STN A            Saskatchewan 7452            50.4       -105.
#> 10 REGINA AP STN B            Saskatchewan 7453            50.4       -105.
#> # ℹ 20 more rows
…
